00_all
…
then calculate the frequency

it is for each species!!!

#calculating the frequency for all of the bacterias: result = R
resistant_data <- data_long |>
  mutate(resistant = Resistance == "R") |>
  group_by(Species, Antibiotic, resistant) |>
  summarise(n = n(), .groups = "drop_last") |>  # keep Species + Antibiotic grouping
  mutate(freq = n / sum(n))

resistant_data

# A tibble: 270 × 5
# Groups:   Species, Antibiotic [135]
   Species                 Antibiotic        resistant     n   freq
   <chr>                   <chr>             <lgl>     <int>  <dbl>
 1 Acinetobacter baumannii AMC               FALSE       110 0.608 
 2 Acinetobacter baumannii AMC               TRUE         71 0.392 
 3 Acinetobacter baumannii AMX.AMP           FALSE       125 0.691 
 4 Acinetobacter baumannii AMX.AMP           TRUE         56 0.309 
 5 Acinetobacter baumannii AN                FALSE       150 0.829 
 6 Acinetobacter baumannii AN                TRUE         31 0.171 
 7 Acinetobacter baumannii Acide.nalidixique FALSE       172 0.950 
 8 Acinetobacter baumannii Acide.nalidixique TRUE          9 0.0497
 9 Acinetobacter baumannii C                 FALSE       157 0.867 
10 Acinetobacter baumannii C                 TRUE         24 0.133 
# ℹ 260 more rows
…
